\relax 
\catcode `"\active 
\catcode `-\active 
\providecommand\@newglossary[4]{}
\@newglossary{main}{glg}{gls}{glo}
\select@language{czech}
\@writefile{toc}{\select@language{czech}}
\@writefile{lof}{\select@language{czech}}
\@writefile{lot}{\select@language{czech}}
\citation{01http09}
\@writefile{toc}{\contentsline {part}{I\hspace  {1em}Protokoly}{2}}
\@writefile{toc}{\contentsline {section}{\numberline {1}HTTP}{2}}
\@writefile{toc}{\contentsline {section}{\numberline {2}Metody}{2}}
\@writefile{toc}{\contentsline {subsubsection}{\numberline {2.0.1}GET}{2}}
\@writefile{toc}{\contentsline {subsubsection}{\numberline {2.0.2}HEAD}{2}}
\@writefile{toc}{\contentsline {subsubsection}{\numberline {2.0.3}POST}{2}}
\@writefile{toc}{\contentsline {subsubsection}{\numberline {2.0.4}PUT}{2}}
\@writefile{toc}{\contentsline {subsubsection}{\numberline {2.0.5}DELETE}{2}}
\citation{rfc0822}
\citation{rfc1945}
\citation{rfc2616}
\@writefile{toc}{\contentsline {subsubsection}{\numberline {2.0.6}OPTIONS}{3}}
\@writefile{toc}{\contentsline {subsubsection}{\numberline {2.0.7}TRACE}{3}}
\@writefile{toc}{\contentsline {subsubsection}{\numberline {2.0.8}CONNECT}{3}}
\@writefile{toc}{\contentsline {section}{\numberline {3}Hlavi\IeC {\v c}ky}{3}}
\@writefile{toc}{\contentsline {section}{\numberline {4}Verze}{3}}
\@writefile{toc}{\contentsline {subsection}{\numberline {4.1}HTTP 0.9}{3}}
\@writefile{toc}{\contentsline {subsection}{\numberline {4.2}HTTP 1.0}{3}}
\citation{rfc3875}
\citation{rfc2616}
\citation{rfc7159}
\@writefile{toc}{\contentsline {subsection}{\numberline {4.3}HTTP 1.1}{4}}
\@writefile{toc}{\contentsline {subsection}{\numberline {4.4}CGI}{4}}
\@writefile{toc}{\contentsline {part}{II\hspace  {1em}Praktick\IeC {\'a} \IeC {\v c}\IeC {\'a}st}{4}}
\@writefile{toc}{\contentsline {subsection}{\numberline {4.5}Vyu\IeC {\v z}it\IeC {\'e} knihovny}{4}}
\@writefile{toc}{\contentsline {subsection}{\numberline {4.6}Syst\IeC {\'e}mov\IeC {\'e} po\IeC {\v z}adavky}{4}}
\@writefile{toc}{\contentsline {subsection}{\numberline {4.7}Instalace}{4}}
\citation{czechiso}
\@writefile{toc}{\contentsline {subsection}{\numberline {4.8}Konfigurace}{5}}
\@writefile{toc}{\contentsline {subsection}{\numberline {4.9}Virtual hosty}{5}}
\@writefile{toc}{\contentsline {subsection}{\numberline {4.10}CGI}{5}}
\@writefile{toc}{\contentsline {subsection}{\numberline {4.11}Testov\IeC {\'a}n\IeC {\'\i } s programem PuTTY}{5}}
\@writefile{toc}{\contentsline {subsection}{\numberline {4.12}Protokol}{5}}
\bibstyle{czechiso}
\bibdata{bibliography}
\bibcite{01http09}{{1}{}{{}}{{}}}
\bibcite{rfc1945}{{2}{}{{}}{{}}}
\bibcite{rfc7159}{{3}{}{{}}{{}}}
\bibcite{rfc0822}{{4}{}{{}}{{}}}
\bibcite{rfc2616}{{5}{}{{}}{{}}}
\bibcite{czechiso}{{6}{}{{}}{{}}}
\bibcite{rfc3875}{{7}{}{{}}{{}}}
\providecommand\NAT@force@numbers{}\NAT@force@numbers
\@writefile{toc}{\contentsline {section}{\numberline {5}Shrnut\IeC {\'\i }}{6}}
\@writefile{toc}{\contentsline {section}{\numberline {6}P\IeC {\v r}\IeC {\'\i }lohy}{6}}
\@writefile{toc}{\contentsline {section}{\numberline {7}Reference}{6}}
